{
  "ORG":"Grass Root Economics",
  "Timestamp":"27-08-2020",
  "Tasks": [
    { "Accomplished":["Resolver.sol","CICRegistration.sol"], "Details":[ "Tested", "Deployed", ".." ] },
    { "Todo":["BNTTokens", "Tokenresolvers"] },
    { "Backlog":"None" }
  ]
 }